06-Procesamiento/seniales/Archivos/csv/CMRR_C01.CSV

Record Length,20480,,Source,CH1,CH2
Sample Interval,CH1:0.0000080000000 CH2:0.0000080000000,,Second,Volt,Volt
Vertical Units,CH1:V CH2:V,,-0.08191999793,0.00120,0.00380
Vertical Scale,CH1:0.01 CH2:0.01,,-0.08191200346,0.00040,0.00320
Vertical Offset,CH1:0.00010 CH2:0.00,,-0.08190400153,-0.00060,0.00240
Horizontal Units,s,,-0.08189599961,0.00300,0.00380
Horizontal Scale,0.0049999999,,-0.08188799769,-0.00060,0.00300
Model Number,SDS1072CML+,,-0.08188000321,-0.00080,0.00260
Serial Number,SDS10BA3163350,,-0.08187200129,0.00020,0.00100
Software Version,6.01.01.16,,-0.08186399937,0.00180,0.00240
,,,-0.08185599744,-0.00040,0.00260
,,,-0.08184800297,0.00080,0.00080
,,,-0.08184000105,-0.00040,0.00180
,,,-0.08183199912,0.00080,0.00060
,,,-0.08182399720,0.00040,0.00320
,,,-0.08181600273,0.00,0.00060
,,,-0.08180800080,-0.00380,0.00380
,,,-0.08179999888,-0.00060,0.00040
,,,-0.08179199696,0.00240,0.00180
,,,-0.08178400248,-0.00200,0.00200
,,,-0.08177600056,0.00300,0.00160
,,,-0.08176799864,0.00180,0.00040
,,,-0.08175999671,-0.00120,0.00260
,,,-0.08175200224,-0.00020,0.00020
,,,-0.08174400032,-0.00040,0.00380
,,,-0.08173599839,-0.00240,0.00040
,,,-0.08172799647,0.00100,0.00040
,,,-0.08172000200,0.00100,0.00160
,,,-0.08171200007,0.00240,0.00180
,,,-0.08170399815,0.00020,0.00180
,,,-0.08169599622,0.00320,-0.00120
,,,-0.08168800175,-0.00080,0.00480
,,,-0.08167999983,-0.00120,0.00100
,,,-0.08167199790,0.00080,0.00160
,,,-0.08166400343,-0.00220,0.00140
,,,-0.08165600151,0.00020,0.00140
,,,-0.08164799958,0.00100,0.00140
,,,-0.08163999766,-0.00060,-0.00160
,,,-0.08163200319,0.00020,-0.00100
,,,-0.08162400126,0.00520,0.00120
,,,-0.08161599934,-0.00020,0.00120
,,,-0.08160799742,-0.00140,-0.00180
,,,-0.08160000294,0.00,0.00
,,,-0.08159200102,-0.00220,0.00060
,,,-0.08158399910,-0.00140,0.00040
,,,-0.08157599717,0.00120,-0.00080
,,,-0.08156800270,-0.00080,-0.00100
,,,-0.08156000078,0.00420,0.00140
,,,-0.08155199885,0.00020,-0.00040
,,,-0.08154399693,0.00080,-0.00160
,,,-0.08153600246,-0.00320,-0.00100
,,,-0.08152800053,-0.00080,0.00020
,,,-0.08151999861,-0.00200,-0.00120
,,,-0.08151199669,0.00020,0.00040
,,,-0.08150400221,0.00260,-0.00220
,,,-0.08149600029,0.00180,0.00140
,,,-0.08148799837,-0.00080,-0.00240
,,,-0.08147999644,0.00120,-0.00360
,,,-0.08147200197,0.00260,-0.00200
,,,-0.08146400005,-0.00200,0.00200
,,,-0.08145599812,0.00040,-0.00320
,,,-0.08144799620,-0.00060,-0.00360
,,,-0.08144000173,0.00,-0.00120
,,,-0.08143199980,0.00020,-0.00220
,,,-0.08142399788,0.00120,-0.00200
,,,-0.08141600341,-0.00300,-0.00300
,,,-0.08140800148,0.00120,-0.00100
,,,-0.08139999956,0.00040,-0.00200
,,,-0.08139199764,-0.00200,-0.00240
,,,-0.08138400316,0.00020,-0.00200
,,,-0.08137600124,-0.00040,-0.00080
,,,-0.08136799932,-0.00280,-0.00400
,,,-0.08135999739,0.00020,-0.00280
,,,-0.08135200292,0.00400,-0.00220
,,,-0.08134400100,0.00120,-0.00240
,,,-0.08133599907,-0.00040,-0.00340
,,,-0.08132799715,0.00200,-0.00340
,,,-0.08132000268,0.00060,-0.00140
,,,-0.08131200075,0.00180,-0.00480
,,,-0.08130399883,-0.00040,-0.00180
,,,-0.08129599690,-0.00440,-0.00520
,,,-0.08128800243,0.00080,-0.00240
,,,-0.08128000051,0.00460,-0.00240
,,,-0.08127199858,-0.00120,-0.00300
,,,-0.08126399666,-0.00060,-0.00280
,,,-0.08125600219,0.00200,-0.00400
,,,-0.08124800026,-0.00120,-0.00300
,,,-0.08123999834,-0.00180,-0.00380
,,,-0.08123199642,0.00280,-0.00240
,,,-0.08122400194,-0.00160,-0.00440
,,,-0.08121600002,-0.00100,-0.00480
,,,-0.08120799810,0.00140,-0.00400
,,,-0.08119999617,0.00080,-0.00260
,,,-0.08119200170,0.00,-0.00460
,,,-0.08118399978,0.00200,-0.00360
,,,-0.08117599785,0.00020,-0.00380
,,,-0.08116800338,0.00020,-0.00220
,,,-0.08116000146,0.00040,-0.00380
,,,-0.08115199953,-0.00120,-0.00620
,,,-0.08114399761,-0.00380,-0.00320
,,,-0.08113600314,0.00160,-0.00420
,,,-0.08112800121,0.00020,-0.00540
,,,-0.08111999929,-0.00060,-0.00520
,,,-0.08111199737,0.00580,-0.00360
,,,-0.08110400289,0.00100,-0.00520
,,,-0.08109600097,-0.00280,-0.00560
,,,-0.08108799905,0.00160,-0.00720
,,,-0.08107999712,-0.00120,-0.00460
,,,-0.08107200265,-0.00200,-0.00380
,,,-0.08106400073,0.00240,-0.00480
,,,-0.08105599880,0.00,-0.00460
,,,-0.08104799688,0.00100,-0.00500
,,,-0.08104000241,0.00240,-0.00520
,,,-0.08103200048,0.00080,-0.00540
,,,-0.08102399856,-0.00300,-0.00360
,,,-0.08101599663,0.00040,-0.00500
,,,-0.08100800216,0.00,-0.00440
,,,-0.08100000024,-0.00360,-0.00560
,,,-0.08099199831,0.00240,-0.00480
,,,-0.08098399639,-0.00280,-0.00060
,,,-0.08097600192,-0.00120,-0.00780
,,,-0.08096799999,0.00200,-0.00560
,,,-0.08095999807,0.00340,-0.00640
,,,-0.08095199615,-0.00180,-0.00640
,,,-0.08094400167,-0.00040,-0.00520
,,,-0.08093599975,-0.00200,-0.00540
,,,-0.08092799783,-0.00120,-0.00680
,,,-0.08092000335,0.00040,-0.00580
,,,-0.08091200143,0.00200,-0.00840
,,,-0.08090399951,-0.00280,-0.00580
,,,-0.08089599758,0.00320,-0.00620
,,,-0.08088800311,0.00160,-0.00700
,,,-0.08088000119,-0.00120,-0.00540
,,,-0.08087199926,-0.00200,-0.00600
,,,-0.08086399734,-0.00360,-0.00540
,,,-0.08085600287,-0.00260,-0.00700
,,,-0.08084800094,-0.00040,-0.00680
,,,-0.08083999902,0.00260,-0.00740
,,,-0.08083199710,0.00080,-0.00620
,,,-0.08082400262,0.00,-0.00920
,,,-0.08081600070,0.00180,-0.00740
,,,-0.08080799878,-0.00200,-0.00600
,,,-0.08079999685,-0.00220,-0.00780
,,,-0.08079200238,0.00020,-0.00740
,,,-0.08078400046,-0.00260,-0.00720
,,,-0.08077599853,0.00260,-0.00600
,,,-0.08076799661,0.00100,-0.00740
,,,-0.08076000214,0.00120,-0.00700
,,,-0.08075200021,-0.00200,-0.00780
,,,-0.08074399829,0.00180,-0.00620
,,,-0.08073599637,-0.00100,-0.00820
,,,-0.08072800189,-0.00080,-0.00840
,,,-0.08071999997,-0.00040,-0.00700
,,,-0.08071199805,-0.00220,-0.00760
,,,-0.08070399612,-0.00120,-0.00720
,,,-0.08069600165,0.00040,-0.01120
,,,-0.08068799973,0.00100,-0.00780
,,,-0.08067999780,0.00100,-0.00840
,,,-0.08067200333,0.00020,-0.00640
,,,-0.08066400141,-0.00040,-0.00900
,,,-0.08065599948,0.00040,-0.00840
,,,-0.08064799756,-0.00080,-0.00960
,,,-0.08064000309,-0.00120,-0.00840
,,,-0.08063200116,-0.00080,-0.00880
,,,-0.08062399924,0.00280,-0.00800
,,,-0.08061599731,0.00020,-0.00720
,,,-0.08060800284,0.00040,-0.00920
,,,-0.08060000092,-0.00160,-0.00680
,,,-0.08059199899,-0.00140,-0.00920
,,,-0.08058399707,-0.00200,-0.00600
,,,-0.08057600260,0.00020,-0.00900
,,,-0.08056800067,-0.00040,-0.00980
,,,-0.08055999875,0.00100,-0.00720
,,,-0.08055199683,0.00120,-0.00940
,,,-0.08054400235,-0.00020,-0.01120
,,,-0.08053600043,0.00120,-0.00860
,,,-0.08052799851,0.00120,-0.00780
,,,-0.08051999658,-0.00120,-0.01160
,,,-0.08051200211,0.00080,-0.00740
,,,-0.08050400019,0.00120,-0.00920
,,,-0.08049599826,-0.00160,-0.00840
,,,-0.08048799634,0.00280,-0.00680
,,,-0.08048000187,-0.00200,-0.01000
,,,-0.08047199994,0.00020,-0.01040
,,,-0.08046399802,0.00280,-0.00920
,,,-0.08045599610,-0.00040,-0.01200
,,,-0.08044800162,0.00220,-0.00860
,,,-0.08043999970,-0.00300,-0.00840
,,,-0.08043199778,-0.00140,-0.00900
,,,-0.08042400330,0.00180,-0.00840
,,,-0.08041600138,0.00300,-0.00960
,,,-0.08040799946,-0.00020,-0.00920
,,,-0.08039999753,0.00280,-0.00900
,,,-0.08039200306,-0.00280,-0.00940
,,,-0.08038400114,-0.00060,-0.00920
,,,-0.08037599921,0.00120,-0.00920
,,,-0.08036799729,0.00100,-0.00860
,,,-0.08036000282,0.00160,-0.00960
,,,-0.08035200089,-0.00080,-0.01060
,,,-0.08034399897,0.00080,-0.01060
,,,-0.08033599705,0.00160,-0.00940
,,,-0.08032800257,-0.00140,-0.00840
,,,-0.08032000065,0.00180,-0.00960
,,,-0.08031199872,-0.00060,-0.01000
,,,-0.08030399680,-0.00120,-0.01000
,,,-0.08029600233,0.00160,-0.01020
,,,-0.08028800040,-0.00420,-0.00960
,,,-0.08027999848,-0.00060,-0.01120
,,,-0.08027199656,0.00400,-0.01020
,,,-0.08026400208,0.00080,-0.01040
,,,-0.08025600016,0.00260,-0.01020
,,,-0.08024799824,0.00160,-0.01020
,,,-0.08023999631,-0.00080,-0.01020
,,,-0.08023200184,0.00200,-0.01100
,,,-0.08022399992,-0.00040,-0.00840
,,,-0.08021599799,-0.00080,-0.01040
,,,-0.08020800352,-0.00360,-0.01120
,,,-0.08020000160,0.00160,-0.01000
,,,-0.08019199967,-0.00180,-0.01040
,,,-0.08018399775,-0.00300,-0.00840
,,,-0.08017600328,-0.00300,-0.01140
,,,-0.08016800135,0.00100,-0.01140
,,,-0.08015999943,0.00340,-0.00980
,,,-0.08015199751,0.00,-0.01100
,,,-0.08014400303,0.00,-0.01000
,,,-0.08013600111,-0.00080,-0.01220
,,,-0.08012799919,0.00420,-0.01020
,,,-0.08011999726,0.00240,-0.01100
,,,-0.08011200279,0.00180,-0.00880
,,,-0.08010400087,0.00200,-0.01120
,,,-0.08009599894,0.00200,-0.01200
,,,-0.08008799702,0.00,-0.00880
,,,-0.08008000255,0.00120,-0.01020
,,,-0.08007200062,-0.00300,-0.01000
,,,-0.08006399870,-0.00140,-0.01020
,,,-0.08005599678,0.00020,-0.01180
,,,-0.08004800230,0.00240,-0.01140
,,,-0.08004000038,0.00,-0.01080
,,,-0.08003199846,0.00180,-0.01280
,,,-0.08002399653,0.00100,-0.01160
,,,-0.08001600206,-0.00020,-0.01160
,,,-0.08000800014,0.00180,-0.01220
,,,-0.07999999821,-0.00160,-0.01420
,,,-0.07999199629,-0.00140,-0.01040
,,,-0.07998400182,0.00480,-0.01320
,,,-0.07997599989,0.00420,-0.01180
,,,-0.07996799797,0.00200,-0.01080
,,,-0.07996000350,-0.00380,-0.01440
,,,-0.07995200157,0.00120,-0.01100
,,,-0.07994399965,-0.00160,-0.01160
,,,-0.07993599772,0.00100,-0.01120
,,,-0.07992800325,0.00020,-0.01160
,,,-0.07992000133,0.00140,-0.01160
,,,-0.07991199940,0.00180,-0.01100
,,,-0.07990399748,0.00200,-0.01220
,,,-0.07989600301,-0.00120,-0.01040
,,,-0.07988800108,-0.00280,-0.01320
,,,-0.07987999916,0.00660,-0.01420
,,,-0.07987199724,-0.00420,-0.00980
,,,-0.07986400276,0.00,-0.01180
,,,-0.07985600084,0.00100,-0.01180
,,,-0.07984799892,-0.00300,-0.01160
,,,-0.07983999699,0.00280,-0.01240
,,,-0.07983200252,-0.00080,-0.01260
,,,-0.07982400060,0.00100,-0.01160
,,,-0.07981599867,0.00340,-0.01260
,,,-0.07980799675,0.00180,-0.01200
,,,-0.07980000228,0.00,-0.01240
,,,-0.07979200035,0.00100,-0.01160
,,,-0.07978399843,0.00100,-0.01160
,,,-0.07977599651,-0.00360,-0.01140
,,,-0.07976800203,-0.00140,-0.01340
,,,-0.07976000011,0.00040,-0.01120
,,,-0.07975199819,0.00340,-0.01160
,,,-0.07974399626,0.00,-0.01240
,,,-0.07973600179,0.00200,-0.01220
,,,-0.07972799987,0.00120,-0.01220
,,,-0.07971999794,0.00120,-0.01260
,,,-0.07971200347,-0.00060,-0.01180
,,,-0.07970400155,-0.00240,-0.01320
,,,-0.07969599962,0.00040,-0.01140
,,,-0.07968799770,-0.00220,-0.01260
,,,-0.07968000323,0.00180,-0.01240
,,,-0.07967200130,0.00400,-0.01180
,,,-0.07966399938,-0.00320,-0.01460
,,,-0.07965599746,0.00120,-0.01140
,,,-0.07964800298,0.00320,-0.01260
,,,-0.07964000106,-0.00120,-0.01100
,,,-0.07963199914,0.00080,-0.01320
,,,-0.07962399721,0.00160,-0.01320
,,,-0.07961600274,-0.00040,-0.01180
,,,-0.07960800081,-0.00160,-0.01260
,,,-0.07959999889,-0.00300,-0.01260
,,,-0.07959199697,0.00120,-0.01300
,,,-0.07958400249,0.00020,-0.01180
,,,-0.07957600057,0.00020,-0.01240
,,,-0.07956799865,0.00240,-0.01260
,,,-0.07955999672,-0.00120,-0.01200
,,,-0.07955200225,-0.00320,-0.01160
,,,-0.07954400033,0.00200,-0.01140
,,,-0.07953599840,0.00280,-0.01180
,,,-0.07952799648,0.00120,-0.00940
,,,-0.07952000201,0.00120,-0.01240
,,,-0.07951200008,0.00,-0.01180
,,,-0.07950399816,0.00180,-0.01380
,,,-0.07949599624,0.00160,-0.01320
,,,-0.07948800176,0.00100,-0.01180
,,,-0.07947999984,-0.00140,-0.01220
,,,-0.07947199792,-0.00060,-0.01160
,,,-0.07946400344,-0.00040,-0.01320
,,,-0.07945600152,0.00020,-0.01160
,,,-0.07944799960,-0.00460,-0.01240
,,,-0.07943999767,0.00160,-0.01120
,,,-0.07943200320,0.00180,-0.01200
,,,-0.07942400128,0.00040,-0.01260
,,,-0.07941599935,0.00260,-0.01180
,,,-0.07940799743,-0.00180,-0.01120
,,,-0.07940000296,0.00340,-0.01220
,,,-0.07939200103,-0.00120,-0.01280
,,,-0.07938399911,-0.00040,-0.01220
,,,-0.07937599719,0.00180,-0.01200
,,,-0.07936800271,0.00200,-0.01080
,,,-0.07936000079,0.00080,-0.01120
,,,-0.07935199887,0.00120,-0.01340
,,,-0.07934399694,-0.00040,-0.01220
,,,-0.07933600247,-0.00220,-0.01220
,,,-0.07932800055,-0.00140,-0.01260
,,,-0.07931999862,-0.00120,-0.01180
,,,-0.07931199670,0.00,-0.01340
,,,-0.07930400223,-0.00040,-0.01280
,,,-0.07929600030,-0.00320,-0.01280
,,,-0.07928799838,0.00040,-0.01240
,,,-0.07927999645,-0.00140,-0.01360
,,,-0.07927200198,-0.00040,-0.01100
,,,-0.07926400006,0.00500,-0.01260
,,,-0.07925599813,-0.00180,-0.01380
,,,-0.07924799621,0.00020,-0.01140
,,,-0.07924000174,0.00100,-0.01240
,,,-0.07923199981,0.00040,-0.01280
,,,-0.07922399789,0.00040,-0.01160
,,,-0.07921600342,0.00160,-0.01160
,,,-0.07920800149,0.00120,-0.01060
,,,-0.07919999957,0.00200,-0.01200
,,,-0.07919199765,0.00120,-0.01240
,,,-0.07918400317,0.00260,-0.01360
,,,-0.07917600125,0.00300,-0.01260
,,,-0.07916799933,0.00340,-0.01160
,,,-0.07915999740,0.00060,-0.01280
,,,-0.07915200293,-0.00140,-0.01280
,,,-0.07914400101,-0.00200,-0.01100
,,,-0.07913599908,0.00180,-0.01320
,,,-0.07912799716,0.00040,-0.01340
,,,-0.07912000269,-0.00240,-0.01040
,,,-0.07911200076,0.00280,-0.01320
,,,-0.07910399884,-0.00080,-0.01220
,,,-0.07909599692,0.00320,-0.01240
,,,-0.07908800244,0.00,-0.01340
,,,-0.07908000052,-0.00280,-0.00880
,,,-0.07907199860,0.00,-0.01220
,,,-0.07906399667,0.00040,-0.01280
,,,-0.07905600220,0.00,-0.01200
,,,-0.07904800028,0.00060,-0.01080
,,,-0.07903999835,-0.00040,-0.01240
,,,-0.07903199643,0.00040,-0.01200
,,,-0.07902400196,0.00040,-0.01300
,,,-0.07901600003,-0.00060,-0.01220
,,,-0.07900799811,0.00040,-0.01320
,,,-0.07899999619,0.00060,-0.01200
,,,-0.07899200171,0.00120,-0.01240
,,,-0.07898399979,0.00120,-0.01080
,,,-0.07897599787,0.00280,-0.01220
,,,-0.07896800339,0.00020,-0.01280
,,,-0.07896000147,-0.00120,-0.01260
,,,-0.07895199955,-0.00040,-0.01340
,,,-0.07894399762,0.00020,-0.01140
,,,-0.07893600315,0.00,-0.01060
,,,-0.07892800122,0.00340,-0.01320
,,,-0.07891999930,-0.00160,-0.01160
,,,-0.07891199738,0.00200,-0.01300
,,,-0.07890400290,-0.00060,-0.01220
,,,-0.07889600098,0.00060,-0.01220
,,,-0.07888799906,0.00320,-0.01240
,,,-0.07887999713,0.00020,-0.01060
,,,-0.07887200266,0.00100,-0.01300
,,,-0.07886400074,0.00180,-0.01220
,,,-0.07885599881,0.00100,-0.01280
,,,-0.07884799689,-0.00060,-0.01300
,,,-0.07884000242,0.00120,-0.01380
,,,-0.07883200049,0.00040,-0.01440
,,,-0.07882399857,-0.00040,-0.01140
,,,-0.07881599665,0.00100,-0.01220
,,,-0.07880800217,0.00080,-0.01240
,,,-0.07880000025,0.00160,-0.01200
,,,-0.07879199833,0.00120,-0.01240
,,,-0.07878399640,0.00080,-0.01020
,,,-0.07877600193,-0.00080,-0.01280
,,,-0.07876800001,0.00100,-0.01240
,,,-0.07875999808,0.00100,-0.01320
,,,-0.07875199616,0.00180,-0.01300
,,,-0.07874400169,0.00080,-0.01180
,,,-0.07873599976,0.00100,-0.01200
,,,-0.07872799784,-0.00040,-0.01260
,,,-0.07872000337,0.00200,-0.01180
,,,-0.07871200144,0.00,-0.01140
,,,-0.07870399952,-0.00220,-0.01160
,,,-0.07869599760,0.00340,-0.01180
,,,-0.07868800312,0.00180,-0.01180
,,,-0.07868000120,0.00120,-0.01280
,,,-0.07867199928,0.00080,-0.01140
,,,-0.07866399735,0.00100,-0.01100
,,,-0.07865600288,0.00120,-0.01280
,,,-0.07864800096,0.00100,-0.01200
,,,-0.07863999903,-0.00040,-0.01220
,,,-0.07863199711,-0.00020,-0.01400
,,,-0.07862400264,0.00120,-0.01160
,,,-0.07861600071,0.00040,-0.01220
,,,-0.07860799879,0.00280,-0.01240
,,,-0.07859999686,0.00060,-0.01100
,,,-0.07859200239,0.00080,-0.01320
,,,-0.07858400047,-0.00060,-0.01240
,,,-0.07857599854,0.00,-0.01300
,,,-0.07856799662,0.00120,-0.01220
,,,-0.07856000215,0.00220,-0.01240
,,,-0.07855200022,0.00020,-0.01160
,,,-0.07854399830,-0.00280,-0.01060
,,,-0.07853599638,0.00200,-0.01280
,,,-0.07852800190,0.00080,-0.01240
,,,-0.07851999998,-0.00060,-0.01160
,,,-0.07851199806,0.00100,-0.01120
,,,-0.07850399613,0.00080,-0.01280
,,,-0.07849600166,0.00160,-0.01160
,,,-0.07848799974,0.00020,-0.01120
,,,-0.07847999781,0.00160,-0.01220
,,,-0.07847200334,0.00420,-0.01320
,,,-0.07846400142,0.00180,-0.00980
,,,-0.07845599949,0.00080,-0.01060
,,,-0.07844799757,0.00020,-0.01080
,,,-0.07844000310,0.00120,-0.01060
,,,-0.07843200117,0.00040,-0.01120
,,,-0.07842399925,0.00100,-0.01220
,,,-0.07841599733,0.00180,-0.01060
,,,-0.07840800285,0.00120,-0.01100
,,,-0.07840000093,0.00080,-0.01200
,,,-0.07839199901,0.00020,-0.01060
,,,-0.07838399708,0.00320,-0.01180
,,,-0.07837600261,0.00100,-0.01100
,,,-0.07836800069,0.00200,-0.01120
,,,-0.07835999876,0.00100,-0.01060
,,,-0.07835199684,0.00,-0.01060
,,,-0.07834400237,0.00260,-0.01060
,,,-0.07833600044,0.00180,-0.01060
,,,-0.07832799852,0.00180,-0.00920
,,,-0.07831999660,0.00320,-0.01220
,,,-0.07831200212,-0.00240,-0.01160
,,,-0.07830400020,0.00100,-0.01040
,,,-0.07829599828,0.00120,-0.01280
,,,-0.07828799635,0.00080,-0.01100
,,,-0.07828000188,0.00140,-0.01140
,,,-0.07827199996,0.00180,-0.01020
,,,-0.07826399803,0.00240,-0.01140
,,,-0.07825599611,0.00160,-0.00960
,,,-0.07824800164,0.00,-0.00980
,,,-0.07823999971,0.00280,-0.01120
,,,-0.07823199779,0.00200,-0.01040
,,,-0.07822400331,0.00040,-0.01040
,,,-0.07821600139,0.00120,-0.01100
,,,-0.07820799947,0.00020,-0.01080
,,,-0.07819999754,0.00140,-0.01020
,,,-0.07819200307,0.00040,-0.01000
,,,-0.07818400115,0.00020,-0.01020
,,,-0.07817599922,0.00280,-0.01040
,,,-0.07816799730,0.00200,-0.00980
,,,-0.07816000283,0.00040,-0.01040
,,,-0.07815200090,0.00160,-0.01040
,,,-0.07814399898,0.00180,-0.01000
,,,-0.07813599706,0.00180,-0.00980
,,,-0.07812800258,0.00100,-0.01080
,,,-0.07812000066,0.00180,-0.00960
,,,-0.07811199874,0.00180,-0.01060
,,,-0.07810399681,0.00320,-0.01080
,,,-0.07809600234,0.00160,-0.00960
,,,-0.07808800042,0.00220,-0.01160
,,,-0.07807999849,0.00020,-0.00980
,,,-0.07807199657,0.00160,-0.01080
,,,-0.07806400210,0.00180,-0.00960
,,,-0.07805600017,0.00180,-0.00960
,,,-0.07804799825,0.00180,-0.00840
,,,-0.07803999633,0.00120,-0.00860
,,,-0.07803200185,0.00240,-0.01120
,,,-0.07802399993,0.00360,-0.01120
,,,-0.07801599801,0.00160,-0.00880
,,,-0.07800799608,0.00020,-0.00900
,,,-0.07800000161,0.00080,-0.01040
,,,-0.07799199969,0.00260,-0.00820
,,,-0.07798399776,0.00200,-0.00980
,,,-0.07797600329,0.00120,-0.00880
,,,-0.07796800137,0.00120,-0.01000
,,,-0.07795999944,0.00180,-0.00820
,,,-0.07795199752,-0.00040,-0.00860
,,,-0.07794400305,0.00180,-0.00860
,,,-0.07793600112,0.00340,-0.00940
,,,-0.07792799920,0.00160,-0.00880
,,,-0.07791999727,0.00100,-0.00860
,,,-0.07791200280,0.00160,-0.00820
,,,-0.07790400088,0.00180,-0.00880
,,,-0.07789599895,0.00320,-0.00920
,,,-0.07788799703,0.00160,-0.00880
,,,-0.07788000256,0.00200,-0.01000
,,,-0.07787200063,0.00260,-0.00880
,,,-0.07786399871,0.00120,-0.01000
,,,-0.07785599679,0.00080,-0.00780
,,,-0.07784800231,0.00100,-0.00800
,,,-0.07784000039,0.00240,-0.00740
,,,-0.07783199847,0.00120,-0.00860
,,,-0.07782399654,0.00200,-0.00720
,,,-0.07781600207,0.00180,-0.00760
,,,-0.07780800015,0.00180,-0.00800
,,,-0.07779999822,0.00040,-0.00860
,,,-0.07779199630,0.00260,-0.00780
,,,-0.07778400183,0.00200,-0.00760
,,,-0.07777599990,0.00180,-0.00740
,,,-0.07776799798,0.00100,-0.00880
,,,-0.07776000351,0.00200,-0.00700
,,,-0.07775200158,0.00120,-0.00780
,,,-0.07774399966,0.00280,-0.00900
,,,-0.07773599774,0.00100,-0.00700
,,,-0.07772800326,0.00240,-0.00800
,,,-0.07772000134,0.00280,-0.00680
,,,-0.07771199942,0.00020,-0.00720
,,,-0.07770399749,0.00100,-0.00760
,,,-0.07769600302,0.00260,-0.00760
,,,-0.07768800110,0.00180,-0.00700
,,,-0.07767999917,0.00200,-0.00700
,,,-0.07767199725,0.00180,-0.00600
,,,-0.07766400278,0.00260,-0.00700
,,,-0.07765600085,0.00240,-0.00520
,,,-0.07764799893,0.00180,-0.00740
,,,-0.07763999701,0.00240,-0.00720
,,,-0.07763200253,0.00120,-0.00560
,,,-0.07762400061,0.00180,-0.00700
,,,-0.07761599869,0.00260,-0.00500
,,,-0.07760799676,0.00180,-0.00700
,,,-0.07760000229,0.00240,-0.00560
,,,-0.07759200037,0.00280,-0.00760
,,,-0.07758399844,0.00120,-0.00560
,,,-0.07757599652,0.00180,-0.00620
,,,-0.07756800205,0.00120,-0.00440
,,,-0.07756000012,0.00140,-0.00580
,,,-0.07755199820,0.00200,-0.00620
,,,-0.07754399627,0.00200,-0.00880
,,,-0.07753600180,0.00200,-0.00560
,,,-0.07752799988,0.00180,-0.00480
,,,-0.07751999795,0.00180,-0.00600
,,,-0.07751200348,0.00280,-0.00500
,,,-0.07750400156,0.00200,-0.00500
,,,-0.07749599963,0.00220,-0.00340
,,,-0.07748799771,0.00360,-0.00520
,,,-0.07748000324,0.00160,-0.00460
,,,-0.07747200131,0.00200,-0.00380
,,,-0.07746399939,0.00260,-0.00480
,,,-0.07745599747,0.00100,-0.00380
,,,-0.07744800299,0.00200,-0.00540
