06-Procesamiento/seniales/Archivos/csv/SDS00006.CSV

Record Length,8000,,Source,CH1,CH2
Sample Interval,CH1:0.0000020000000 CH2:0.0000020000000,,Second,Volt,Volt
Vertical Units,CH1:V CH2:V,,-0.00800000038,3.96000,0.05200
Vertical Scale,CH1:0.50 CH2:0.05,,-0.00799799990,3.94000,0.05200
Vertical Offset,CH1:-4.02000 CH2:0.03800,,-0.00799600035,3.96000,0.05200
Horizontal Units,s,,-0.00799399987,3.96000,0.05000
Horizontal Scale,0.0010000000,,-0.00799200032,3.94000,0.05200
Model Number,SDS1072CML+,,-0.00798999984,3.96000,0.05200
Serial Number,SDS10BA3163350,,-0.00798800029,3.94000,0.05000
Software Version,6.01.01.16,,-0.00798599981,3.94000,0.05200
,,,-0.00798400026,3.96000,0.05200
,,,-0.00798199978,3.94000,0.05400
,,,-0.00798000023,3.96000,0.05200
,,,-0.00797799975,3.96000,0.05200
,,,-0.00797600020,3.96000,0.05400
,,,-0.00797399972,3.96000,0.05200
,,,-0.00797200017,3.94000,0.05200
,,,-0.00796999969,3.96000,0.05200
,,,-0.00796800014,3.94000,0.05200
,,,-0.00796599966,3.96000,0.05200
,,,-0.00796400011,3.96000,0.05200
,,,-0.00796199962,3.94000,0.05200
,,,-0.00796000008,3.96000,0.05200
,,,-0.00795799959,3.96000,0.05200
,,,-0.00795600004,3.96000,0.05200
,,,-0.00795399956,3.96000,0.05200
,,,-0.00795200001,3.96000,0.05200
,,,-0.00794999953,3.96000,0.05200
,,,-0.00794799998,3.96000,0.05200
,,,-0.00794600043,3.96000,0.05200
,,,-0.00794399995,3.94000,0.05200
,,,-0.00794200040,3.96000,0.05200
,,,-0.00793999992,3.94000,0.05200
,,,-0.00793800037,3.96000,0.05200
,,,-0.00793599989,3.94000,0.03800
,,,-0.00793400034,4.04000,0.04000
,,,-0.00793199986,4.10000,0.04000
,,,-0.00793000031,4.12000,0.03800
,,,-0.00792799983,4.12000,0.03800
,,,-0.00792600028,4.12000,0.03800
,,,-0.00792399980,4.12000,0.03800
,,,-0.00792200025,4.12000,0.03800
,,,-0.00791999977,4.12000,0.03800
,,,-0.00791800022,4.12000,0.03800
,,,-0.00791599974,4.12000,0.03800
,,,-0.00791400019,4.12000,0.04000
,,,-0.00791199971,4.12000,0.03800
,,,-0.00791000016,4.12000,0.03800
,,,-0.00790799968,4.12000,0.03800
,,,-0.00790600013,4.12000,0.03800
,,,-0.00790399965,4.12000,0.03800
,,,-0.00790200010,4.12000,0.03800
,,,-0.00789999962,4.12000,0.03800
,,,-0.00789800007,4.12000,0.03800
,,,-0.00789599959,4.12000,0.03800
,,,-0.00789400004,4.12000,0.03800
,,,-0.00789199956,4.12000,0.03800
,,,-0.00789000001,4.12000,0.03800
,,,-0.00788799953,4.12000,0.03800
,,,-0.00788599998,4.12000,0.03800
,,,-0.00788400043,4.12000,0.03800
,,,-0.00788199995,4.12000,0.03800
,,,-0.00788000040,4.12000,0.03800
,,,-0.00787799992,4.12000,0.03800
,,,-0.00787600037,4.12000,0.03800
,,,-0.00787399989,4.12000,0.03800
,,,-0.00787200034,4.12000,0.03800
,,,-0.00786999986,4.12000,0.04000
,,,-0.00786800031,4.10000,0.03800
,,,-0.00786599983,4.12000,0.03600
,,,-0.00786400028,4.12000,0.03800
,,,-0.00786199979,4.12000,0.03800
,,,-0.00786000025,4.12000,0.03800
,,,-0.00785799976,4.12000,0.03800
,,,-0.00785600021,4.12000,0.03800
,,,-0.00785399973,4.12000,0.03800
,,,-0.00785200018,4.12000,0.03800
,,,-0.00784999970,4.12000,0.04000
,,,-0.00784800015,4.12000,0.03800
,,,-0.00784599967,4.12000,0.03800
,,,-0.00784400012,4.12000,0.03800
,,,-0.00784199964,4.12000,0.03600
,,,-0.00784000009,4.12000,0.03800
,,,-0.00783799961,4.12000,0.03800
,,,-0.00783600006,4.12000,0.03800
,,,-0.00783399958,4.12000,0.03800
,,,-0.00783200003,4.12000,0.03800
,,,-0.00782999955,4.12000,0.03800
,,,-0.00782800000,4.12000,0.03800
,,,-0.00782599952,4.12000,0.03800
,,,-0.00782399997,4.12000,0.03800
,,,-0.00782200042,4.12000,0.03800
,,,-0.00781999994,4.12000,0.03800
,,,-0.00781800039,4.12000,0.03800
,,,-0.00781599991,4.12000,0.03800
,,,-0.00781400036,4.12000,0.03800
,,,-0.00781199988,4.12000,0.03800
,,,-0.00780999986,4.12000,0.03800
,,,-0.00780799985,4.12000,0.03800
,,,-0.00780599983,4.12000,0.03800
,,,-0.00780399982,4.12000,0.03800
,,,-0.00780199980,4.12000,0.03600
,,,-0.00779999979,4.12000,0.03800
,,,-0.00779799977,4.12000,0.03800
,,,-0.00779599976,4.12000,0.03800
,,,-0.00779400021,4.12000,0.03800
,,,-0.00779200019,4.12000,0.03800
,,,-0.00779000018,4.12000,0.03800
,,,-0.00778800016,4.12000,0.03800
,,,-0.00778600015,4.12000,0.03800
,,,-0.00778400013,4.12000,0.03800
,,,-0.00778200012,4.12000,0.03800
,,,-0.00778000010,4.12000,0.03800
,,,-0.00777800009,4.12000,0.03600
,,,-0.00777600007,4.12000,0.03800
,,,-0.00777400006,4.12000,0.03800
,,,-0.00777200004,4.12000,0.03800
,,,-0.00777000003,4.12000,0.03800
,,,-0.00776800001,4.12000,0.03600
,,,-0.00776600000,4.12000,0.03800
,,,-0.00776399998,4.12000,0.03800
,,,-0.00776199996,4.12000,0.03800
,,,-0.00775999995,4.12000,0.03800
,,,-0.00775799993,4.12000,0.03800
,,,-0.00775599992,4.12000,0.03800
,,,-0.00775399990,4.12000,0.03800
,,,-0.00775199989,4.12000,0.03800
,,,-0.00774999987,4.12000,0.03800
,,,-0.00774799986,4.12000,0.03800
,,,-0.00774599984,4.12000,0.03800
,,,-0.00774399983,4.12000,0.03800
,,,-0.00774199981,4.12000,0.03800
,,,-0.00773999980,4.12000,0.03800
,,,-0.00773799978,4.12000,0.03800
,,,-0.00773599977,4.12000,0.03800
,,,-0.00773399975,4.12000,0.03800
,,,-0.00773200020,4.12000,0.03800
,,,-0.00773000019,4.12000,0.03800
,,,-0.00772800017,4.12000,0.03800
,,,-0.00772600016,4.12000,0.03800
,,,-0.00772400014,4.12000,0.03800
,,,-0.00772200013,4.12000,0.03800
,,,-0.00772000011,4.12000,0.03800
,,,-0.00771800010,4.12000,0.03800
,,,-0.00771600008,4.12000,0.03800
,,,-0.00771400006,4.12000,0.03800
,,,-0.00771200005,4.12000,0.04000
,,,-0.00771000003,4.12000,0.03800
,,,-0.00770800002,4.12000,0.03800
,,,-0.00770600000,4.12000,0.03800
,,,-0.00770399999,4.12000,0.03600
,,,-0.00770199997,4.12000,0.03800
,,,-0.00769999996,4.12000,0.03800
,,,-0.00769799994,4.12000,0.03800
,,,-0.00769599993,4.12000,0.03800
,,,-0.00769399991,4.12000,0.04000
,,,-0.00769199990,4.12000,0.03600
,,,-0.00768999988,4.12000,0.03800
,,,-0.00768799987,4.12000,0.03800
,,,-0.00768599985,4.12000,0.03600
,,,-0.00768399984,4.12000,0.03800
,,,-0.00768199982,4.10000,0.03800
,,,-0.00767999981,4.12000,0.03600
,,,-0.00767799979,4.12000,0.03800
,,,-0.00767599978,4.12000,0.03800
,,,-0.00767399976,4.12000,0.03800
,,,-0.00767200021,4.12000,0.03800
,,,-0.00767000020,4.12000,0.03800
,,,-0.00766800018,4.12000,0.03800
,,,-0.00766600017,4.12000,0.03800
,,,-0.00766400015,4.12000,0.03800
,,,-0.00766200013,4.12000,0.03800
,,,-0.00766000012,4.12000,0.03800
,,,-0.00765800010,4.12000,0.03800
,,,-0.00765600009,4.12000,0.03800
,,,-0.00765400007,4.12000,0.03800
,,,-0.00765200006,4.12000,0.03800
,,,-0.00765000004,4.12000,0.03800
,,,-0.00764800003,4.12000,0.03800
,,,-0.00764600001,4.12000,0.03800
,,,-0.00764400000,4.12000,0.03800
,,,-0.00764199998,4.12000,0.03800
,,,-0.00763999997,4.12000,0.03800
,,,-0.00763799995,4.12000,0.03600
,,,-0.00763599994,4.12000,0.03800
,,,-0.00763399992,4.12000,0.03800
,,,-0.00763199991,4.12000,0.03800
,,,-0.00762999989,4.12000,0.03800
,,,-0.00762799988,4.12000,0.03600
,,,-0.00762599986,4.12000,0.03600
,,,-0.00762399985,4.12000,0.03800
,,,-0.00762199983,4.12000,0.03800
,,,-0.00761999981,4.12000,0.03800
,,,-0.00761799980,4.12000,0.03800
,,,-0.00761599978,4.12000,0.03600
,,,-0.00761399977,4.12000,0.03800
,,,-0.00761199975,4.12000,0.04000
,,,-0.00761000020,4.12000,0.03800
,,,-0.00760800019,4.12000,0.03800
,,,-0.00760600017,4.12000,0.03800
,,,-0.00760400016,4.12000,0.03800
,,,-0.00760200014,4.12000,0.03800
,,,-0.00760000013,4.12000,0.03800
,,,-0.00759800011,4.12000,0.03800
,,,-0.00759600010,4.12000,0.03800
,,,-0.00759400008,4.12000,0.03800
,,,-0.00759200007,4.12000,0.03800
,,,-0.00759000005,4.12000,0.03800
,,,-0.00758800004,4.12000,0.03800
,,,-0.00758600002,4.12000,0.03800
,,,-0.00758400001,4.12000,0.03800
,,,-0.00758199999,4.12000,0.03800
,,,-0.00757999998,4.12000,0.03800
,,,-0.00757799996,4.12000,0.03800
,,,-0.00757599995,4.12000,0.03800
,,,-0.00757399993,4.12000,0.03800
,,,-0.00757199991,4.12000,0.03800
,,,-0.00756999990,4.12000,0.03800
,,,-0.00756799988,4.12000,0.03800
,,,-0.00756599987,4.12000,0.03800
,,,-0.00756399985,4.12000,0.03800
,,,-0.00756199984,4.12000,0.03800
,,,-0.00755999982,4.12000,0.03800
,,,-0.00755799981,4.12000,0.03800
,,,-0.00755599979,4.12000,0.03800
,,,-0.00755399978,4.12000,0.03800
,,,-0.00755199976,4.12000,0.03800
,,,-0.00755000021,4.12000,0.03800
,,,-0.00754800020,4.12000,0.03600
,,,-0.00754600018,4.12000,0.03800
,,,-0.00754400017,4.12000,0.03800
,,,-0.00754200015,4.12000,0.03800
,,,-0.00754000014,4.12000,0.03800
,,,-0.00753800012,4.12000,0.03800
,,,-0.00753600011,4.12000,0.03800
,,,-0.00753400009,4.12000,0.03800
,,,-0.00753200008,4.12000,0.03800
,,,-0.00753000006,4.12000,0.03800
,,,-0.00752800005,4.12000,0.03800
,,,-0.00752600003,4.12000,0.03800
,,,-0.00752400002,4.12000,0.03600
,,,-0.00752200000,4.12000,0.03800
,,,-0.00751999998,4.12000,0.03800
,,,-0.00751799997,4.12000,0.03800
,,,-0.00751599995,4.12000,0.04000
,,,-0.00751399994,4.12000,0.03600
,,,-0.00751199992,4.12000,0.03800
,,,-0.00750999991,4.12000,0.04000
,,,-0.00750799989,4.12000,0.03800
,,,-0.00750599988,4.12000,0.03800
,,,-0.00750399986,4.12000,0.03800
,,,-0.00750199985,4.12000,0.03800
,,,-0.00749999983,4.12000,0.03600
,,,-0.00749799982,4.12000,0.03800
,,,-0.00749599980,4.12000,0.03800
,,,-0.00749399979,4.12000,0.03800
,,,-0.00749199977,4.12000,0.03800
,,,-0.00748999976,4.12000,0.03800
,,,-0.00748800021,4.12000,0.03600
,,,-0.00748600019,4.12000,0.03800
,,,-0.00748400018,4.12000,0.03800
,,,-0.00748200016,4.12000,0.03800
,,,-0.00748000015,4.12000,0.03800
,,,-0.00747800013,4.12000,0.03800
,,,-0.00747600012,4.10000,0.03800
,,,-0.00747400010,4.12000,0.03800
,,,-0.00747200008,4.12000,0.03800
,,,-0.00747000007,4.12000,0.03800
,,,-0.00746800005,4.12000,0.03800
,,,-0.00746600004,4.12000,0.03800
,,,-0.00746400002,4.12000,0.03800
,,,-0.00746200001,4.12000,0.03800
,,,-0.00745999999,4.12000,0.03800
,,,-0.00745799998,4.12000,0.03800
,,,-0.00745599996,4.12000,0.03800
,,,-0.00745399995,4.12000,0.03800
,,,-0.00745199993,4.12000,0.03800
,,,-0.00744999992,4.12000,0.03800
,,,-0.00744799990,4.12000,0.03600
,,,-0.00744599989,4.12000,0.03800
,,,-0.00744399987,4.12000,0.03800
,,,-0.00744199986,4.12000,0.03600
,,,-0.00743999984,4.10000,0.03800
,,,-0.00743799983,4.12000,0.03800
,,,-0.00743599981,4.12000,0.03600
,,,-0.00743399980,4.12000,0.03800
,,,-0.00743199978,4.12000,0.03800
,,,-0.00742999977,4.12000,0.03800
,,,-0.00742799975,4.10000,0.03800
,,,-0.00742600020,4.12000,0.03800
,,,-0.00742400018,4.12000,0.03600
,,,-0.00742200017,4.12000,0.03800
,,,-0.00742000015,4.12000,0.03800
,,,-0.00741800014,4.12000,0.03800
,,,-0.00741600012,4.12000,0.03800
,,,-0.00741400011,4.12000,0.03800
,,,-0.00741200009,4.12000,0.03800
,,,-0.00741000008,4.12000,0.03800
,,,-0.00740800006,4.12000,0.03800
,,,-0.00740600005,4.12000,0.03800
,,,-0.00740400003,4.12000,0.03600
,,,-0.00740200002,4.12000,0.03600
,,,-0.00740000000,4.12000,0.03800
,,,-0.00739799999,4.12000,0.03600
,,,-0.00739599997,4.12000,0.03800
,,,-0.00739399996,4.12000,0.03800
,,,-0.00739199994,4.12000,0.04000
,,,-0.00738999993,4.12000,0.03800
,,,-0.00738799991,4.12000,0.03800
,,,-0.00738599990,4.12000,0.03800
,,,-0.00738399988,4.12000,0.03800
,,,-0.00738199987,4.12000,0.03800
,,,-0.00737999985,4.12000,0.03800
,,,-0.00737799983,4.12000,0.03800
,,,-0.00737599982,4.12000,0.03600
,,,-0.00737399980,4.10000,0.03800
,,,-0.00737199979,4.12000,0.03800
,,,-0.00736999977,4.12000,0.03600
,,,-0.00736799976,4.12000,0.03800
,,,-0.00736600021,4.12000,0.03800
,,,-0.00736400019,4.18000,0.02400
,,,-0.00736200018,4.24000,0.02400
,,,-0.00736000016,4.26000,0.02400
,,,-0.00735800015,4.28000,0.02400
,,,-0.00735600013,4.28000,0.02600
,,,-0.00735400012,4.28000,0.02600
,,,-0.00735200010,4.30000,0.02400
,,,-0.00735000009,4.28000,0.02400
,,,-0.00734800007,4.28000,0.02400
,,,-0.00734600006,4.28000,0.02600
,,,-0.00734400004,4.28000,0.02600
,,,-0.00734200003,4.28000,0.02400
,,,-0.00734000001,4.28000,0.02400
,,,-0.00733800000,4.28000,0.02400
,,,-0.00733599998,4.28000,0.02400
,,,-0.00733399997,4.28000,0.02600
,,,-0.00733199995,4.26000,0.02600
,,,-0.00732999993,4.28000,0.02400
,,,-0.00732799992,4.28000,0.02400
,,,-0.00732599990,4.28000,0.02600
,,,-0.00732399989,4.28000,0.02600
,,,-0.00732199987,4.28000,0.02600
,,,-0.00731999986,4.28000,0.02600
,,,-0.00731799984,4.28000,0.02400
,,,-0.00731599983,4.28000,0.02600
,,,-0.00731399981,4.28000,0.02600
,,,-0.00731199980,4.30000,0.02600
,,,-0.00730999978,4.28000,0.02400
,,,-0.00730799977,4.28000,0.02600
,,,-0.00730599975,4.28000,0.02400
,,,-0.00730400020,4.26000,0.02400
,,,-0.00730200019,4.28000,0.02600
,,,-0.00730000017,4.28000,0.02400
,,,-0.00729800016,4.28000,0.02400
,,,-0.00729600014,4.28000,0.02600
,,,-0.00729400013,4.28000,0.02400
,,,-0.00729200011,4.28000,0.02600
,,,-0.00729000010,4.28000,0.02600
,,,-0.00728800008,4.28000,0.02400
,,,-0.00728600007,4.28000,0.02400
,,,-0.00728400005,4.28000,0.02600
,,,-0.00728200004,4.30000,0.02400
,,,-0.00728000002,4.28000,0.02600
,,,-0.00727800000,4.28000,0.02400
,,,-0.00727599999,4.28000,0.02400
,,,-0.00727399997,4.28000,0.02400
,,,-0.00727199996,4.28000,0.02600
,,,-0.00726999994,4.28000,0.02400
,,,-0.00726799993,4.28000,0.02400
,,,-0.00726599991,4.28000,0.02600
,,,-0.00726399990,4.28000,0.02400
,,,-0.00726199988,4.28000,0.02400
,,,-0.00725999987,4.28000,0.02600
,,,-0.00725799985,4.28000,0.02400
,,,-0.00725599984,4.28000,0.02400
,,,-0.00725399982,4.28000,0.02600
,,,-0.00725199981,4.28000,0.02600
,,,-0.00724999979,4.28000,0.02400
,,,-0.00724799978,4.28000,0.02400
,,,-0.00724599976,4.28000,0.02600
,,,-0.00724400021,4.28000,0.02400
,,,-0.00724200020,4.28000,0.02400
,,,-0.00724000018,4.28000,0.02600
,,,-0.00723800017,4.28000,0.02600
,,,-0.00723600015,4.28000,0.02400
,,,-0.00723400014,4.28000,0.02600
,,,-0.00723200012,4.28000,0.02600
,,,-0.00723000010,4.28000,0.02400
,,,-0.00722800009,4.28000,0.02400
,,,-0.00722600007,4.28000,0.02600
,,,-0.00722400006,4.28000,0.02600
,,,-0.00722200004,4.28000,0.02400
,,,-0.00722000003,4.28000,0.02600
,,,-0.00721800001,4.28000,0.02400
,,,-0.00721600000,4.28000,0.02400
,,,-0.00721399998,4.28000,0.02600
,,,-0.00721199997,4.28000,0.02400
,,,-0.00720999995,4.28000,0.02400
,,,-0.00720799994,4.28000,0.02400
,,,-0.00720599992,4.28000,0.02400
,,,-0.00720399991,4.28000,0.02600
,,,-0.00720199989,4.28000,0.02400
,,,-0.00719999988,4.28000,0.02400
,,,-0.00719799986,4.28000,0.02400
,,,-0.00719599985,4.28000,0.02400
,,,-0.00719399983,4.28000,0.02600
,,,-0.00719199982,4.28000,0.02400
,,,-0.00718999980,4.28000,0.02400
,,,-0.00718799978,4.28000,0.02400
,,,-0.00718599977,4.28000,0.02400
,,,-0.00718399975,4.28000,0.02400
,,,-0.00718200020,4.26000,0.02400
,,,-0.00718000019,4.28000,0.02600
,,,-0.00717800017,4.28000,0.02400
,,,-0.00717600016,4.28000,0.02400
,,,-0.00717400014,4.28000,0.02600
,,,-0.00717200013,4.28000,0.02400
,,,-0.00717000011,4.28000,0.02400
,,,-0.00716800010,4.28000,0.02600
,,,-0.00716600008,4.28000,0.02600
,,,-0.00716400007,4.28000,0.02400
,,,-0.00716200005,4.28000,0.02600
,,,-0.00716000004,4.28000,0.02400
,,,-0.00715800002,4.28000,0.02400
,,,-0.00715600001,4.28000,0.02600
,,,-0.00715399999,4.28000,0.02600
,,,-0.00715199998,4.28000,0.02400
,,,-0.00714999996,4.28000,0.02400
,,,-0.00714799995,4.28000,0.02400
,,,-0.00714599993,4.28000,0.02400
,,,-0.00714399992,4.28000,0.02600
,,,-0.00714199990,4.28000,0.02400
,,,-0.00713999989,4.26000,0.02400
,,,-0.00713799987,4.28000,0.02400
,,,-0.00713599985,4.28000,0.02400
,,,-0.00713399984,4.28000,0.02600
,,,-0.00713199982,4.28000,0.02400
,,,-0.00712999981,4.28000,0.02400
,,,-0.00712799979,4.28000,0.02400
,,,-0.00712599978,4.28000,0.02400
,,,-0.00712399976,4.28000,0.02400
,,,-0.00712200021,4.28000,0.02400
,,,-0.00712000020,4.28000,0.02400
,,,-0.00711800018,4.28000,0.02400
,,,-0.00711600017,4.28000,0.02400
,,,-0.00711400015,4.28000,0.02400
,,,-0.00711200014,4.28000,0.02400
,,,-0.00711000012,4.28000,0.02400
,,,-0.00710800011,4.26000,0.02400
,,,-0.00710600009,4.28000,0.02400
,,,-0.00710400008,4.28000,0.02400
,,,-0.00710200006,4.28000,0.02600
,,,-0.00710000005,4.28000,0.02400
,,,-0.00709800003,4.28000,0.02400
,,,-0.00709600002,4.28000,0.02400
,,,-0.00709400000,4.26000,0.02400
,,,-0.00709199999,4.28000,0.02400
,,,-0.00708999997,4.26000,0.02400
,,,-0.00708799995,4.26000,0.02600
,,,-0.00708599994,4.28000,0.02400
,,,-0.00708399992,4.28000,0.02600
,,,-0.00708199991,4.30000,0.02400
,,,-0.00707999989,4.28000,0.02600
,,,-0.00707799988,4.28000,0.02400
,,,-0.00707599986,4.28000,0.02400
,,,-0.00707399985,4.26000,0.02600
,,,-0.00707199983,4.28000,0.02400
,,,-0.00706999982,4.26000,0.02400
,,,-0.00706799980,4.28000,0.02600
,,,-0.00706599979,4.28000,0.02400
,,,-0.00706399977,4.28000,0.02400
,,,-0.00706199976,4.28000,0.02400
,,,-0.00706000021,4.28000,0.02400
,,,-0.00705800019,4.28000,0.02600
,,,-0.00705600018,4.26000,0.02400
,,,-0.00705400016,4.28000,0.02400
,,,-0.00705200015,4.28000,0.02600
,,,-0.00705000013,4.28000,0.02400
,,,-0.00704800012,4.28000,0.02600
,,,-0.00704600010,4.28000,0.02400
,,,-0.00704400009,4.28000,0.02400
,,,-0.00704200007,4.28000,0.02600
,,,-0.00704000005,4.28000,0.02400
,,,-0.00703800004,4.28000,0.02400
,,,-0.00703600002,4.28000,0.02400
,,,-0.00703400001,4.28000,0.02400
,,,-0.00703199999,4.28000,0.02600
,,,-0.00702999998,4.28000,0.02400
,,,-0.00702799996,4.26000,0.02400
,,,-0.00702599995,4.26000,0.02600
,,,-0.00702399993,4.28000,0.02400
,,,-0.00702199992,4.28000,0.02400
,,,-0.00701999990,4.28000,0.02400
,,,-0.00701799989,4.28000,0.02400
,,,-0.00701599987,4.28000,0.02400
,,,-0.00701399986,4.28000,0.02400
,,,-0.00701199984,4.28000,0.02400
,,,-0.00700999983,4.28000,0.02600
,,,-0.00700799981,4.26000,0.02400
,,,-0.00700599980,4.28000,0.02600
,,,-0.00700399978,4.28000,0.02400
,,,-0.00700199977,4.28000,0.02600
,,,-0.00699999975,4.28000,0.02400
,,,-0.00699800020,4.28000,0.02600
,,,-0.00699600019,4.28000,0.02400
,,,-0.00699400017,4.28000,0.02600
,,,-0.00699200016,4.28000,0.02600
,,,-0.00699000014,4.28000,0.02400
,,,-0.00698800012,4.28000,0.02400
,,,-0.00698600011,4.28000,0.02400
,,,-0.00698400009,4.28000,0.02400
,,,-0.00698200008,4.28000,0.02600
,,,-0.00698000006,4.28000,0.02400
,,,-0.00697800005,4.28000,0.02600
,,,-0.00697600003,4.28000,0.02600
,,,-0.00697400002,4.28000,0.02400
,,,-0.00697200000,4.28000,0.02400
,,,-0.00696999999,4.28000,0.02400
,,,-0.00696799997,4.28000,0.02400
,,,-0.00696599996,4.28000,0.02400
,,,-0.00696399994,4.28000,0.02400
,,,-0.00696199993,4.28000,0.02400
,,,-0.00695999991,4.28000,0.02600
,,,-0.00695799990,4.28000,0.02400
,,,-0.00695599988,4.28000,0.02400
,,,-0.00695399987,4.28000,0.02600
,,,-0.00695199985,4.28000,0.02400
,,,-0.00694999984,4.28000,0.02600
,,,-0.00694799982,4.28000,0.02400
,,,-0.00694599980,4.28000,0.02400
,,,-0.00694399979,4.26000,0.02400
,,,-0.00694199977,4.28000,0.02400
,,,-0.00693999976,4.28000,0.02600
,,,-0.00693800021,4.28000,0.02400
,,,-0.00693600019,4.28000,0.02400
,,,-0.00693400018,4.28000,0.02200
,,,-0.00693200016,4.28000,0.02400
,,,-0.00693000015,4.30000,0.02400
,,,-0.00692800013,4.28000,0.02600
,,,-0.00692600012,4.28000,0.02600
,,,-0.00692400010,4.28000,0.02400
,,,-0.00692200009,4.28000,0.02400
,,,-0.00692000007,4.26000,0.02400
,,,-0.00691800006,4.28000,0.02400
,,,-0.00691600004,4.28000,0.02000
,,,-0.00691400003,4.36000,0.01000
,,,-0.00691200001,4.42000,0.01200
,,,-0.00691000000,4.44000,0.01000
,,,-0.00690799998,4.44000,0.01200
,,,-0.00690599997,4.44000,0.01200
,,,-0.00690399995,4.44000,0.01000
,,,-0.00690199994,4.44000,0.01200
,,,-0.00689999992,4.44000,0.01200
,,,-0.00689799991,4.44000,0.01200
,,,-0.00689599989,4.44000,0.01200
,,,-0.00689399987,4.44000,0.01000
,,,-0.00689199986,4.44000,0.01200
,,,-0.00688999984,4.44000,0.01200
,,,-0.00688799983,4.44000,0.01200
,,,-0.00688599981,4.44000,0.01000
,,,-0.00688399980,4.44000,0.01200
,,,-0.00688199978,4.46000,0.01200
,,,-0.00687999977,4.44000,0.01200
,,,-0.00687799975,4.44000,0.01200
,,,-0.00687600020,4.44000,0.01200
,,,-0.00687400019,4.44000,0.01200
,,,-0.00687200017,4.44000,0.01200
,,,-0.00687000016,4.44000,0.01400
,,,-0.00686800014,4.44000,0.01000
,,,-0.00686600013,4.44000,0.01200
,,,-0.00686400011,4.46000,0.01200
,,,-0.00686200010,4.44000,0.01200
,,,-0.00686000008,4.44000,0.01000
,,,-0.00685800007,4.46000,0.01200
,,,-0.00685600005,4.44000,0.01200
,,,-0.00685400004,4.44000,0.01200
,,,-0.00685200002,4.44000,0.01200
,,,-0.00685000001,4.44000,0.01200
,,,-0.00684799999,4.44000,0.01200
,,,-0.00684599997,4.44000,0.01200
