06-Procesamiento/seniales/Archivos/csv/SDS00002.CSV

Record Length,10000,,Source,CH1,CH2
Sample Interval,CH1:0.0000080000000 CH2:0.0000080000000,,Second,Volt,Volt
Vertical Units,CH1:V CH2:V,,-0.03999999911,0.00120,0.01320
Vertical Scale,CH1:0.01 CH2:0.01,,-0.03999200091,0.00120,0.01320
Vertical Offset,CH1:0.00 CH2:0.00,,-0.03998399898,0.00120,0.01340
Horizontal Units,s,,-0.03997600079,0.00140,0.01360
Horizontal Scale,0.0049999999,,-0.03996799886,0.00140,0.01380
Model Number,SDS1072CML+,,-0.03996000066,0.00160,0.01380
Serial Number,SDS10BA3163350,,-0.03995199874,0.00160,0.01380
Software Version,6.01.01.16,,-0.03994400054,0.00180,0.01380
,,,-0.03993599862,0.00180,0.01360
,,,-0.03992800042,0.00180,0.01340
,,,-0.03991999850,0.00200,0.01320
,,,-0.03991200030,0.00200,0.01300
,,,-0.03990399837,0.00180,0.01280
,,,-0.03989600018,0.00180,0.01280
,,,-0.03988799825,0.00180,0.01280
,,,-0.03988000005,0.00180,0.01300
,,,-0.03987199813,0.00180,0.01300
,,,-0.03986399993,0.00180,0.01320
,,,-0.03985600173,0.00160,0.01320
,,,-0.03984799981,0.00160,0.01340
,,,-0.03984000161,0.00160,0.01320
,,,-0.03983199969,0.00160,0.01300
,,,-0.03982400149,0.00160,0.01280
,,,-0.03981599957,0.00160,0.01260
,,,-0.03980800137,0.00160,0.01240
,,,-0.03979999945,0.00160,0.01220
,,,-0.03979200125,0.00160,0.01200
,,,-0.03978399932,0.00160,0.01200
,,,-0.03977600113,0.00160,0.01200
,,,-0.03976799920,0.00160,0.01200
,,,-0.03976000100,0.00160,0.01200
,,,-0.03975199908,0.00160,0.01220
,,,-0.03974400088,0.00160,0.01220
,,,-0.03973599896,0.00160,0.01200
,,,-0.03972800076,0.00160,0.01200
,,,-0.03971999884,0.00140,0.01180
,,,-0.03971200064,0.00140,0.01140
,,,-0.03970399871,0.00140,0.01120
,,,-0.03969600052,0.00140,0.01100
,,,-0.03968799859,0.00120,0.01080
,,,-0.03968000039,0.00120,0.01080
,,,-0.03967199847,0.00120,0.01100
,,,-0.03966400027,0.00120,0.01100
,,,-0.03965599835,0.00120,0.01140
,,,-0.03964800015,0.00120,0.01140
,,,-0.03963999823,0.00140,0.01160
,,,-0.03963200003,0.00140,0.01160
,,,-0.03962399811,0.00160,0.01160
,,,-0.03961599991,0.00160,0.01140
,,,-0.03960800171,0.00160,0.01120
,,,-0.03959999979,0.00180,0.01080
,,,-0.03959200159,0.00160,0.01060
,,,-0.03958399966,0.00160,0.01040
,,,-0.03957600147,0.00160,0.01020
,,,-0.03956799954,0.00140,0.01020
,,,-0.03956000134,0.00140,0.01040
,,,-0.03955199942,0.00140,0.01060
,,,-0.03954400122,0.00140,0.01080
,,,-0.03953599930,0.00140,0.01100
,,,-0.03952800110,0.00140,0.01100
,,,-0.03951999918,0.00140,0.01100
,,,-0.03951200098,0.00160,0.01100
,,,-0.03950399905,0.00160,0.01100
,,,-0.03949600086,0.00140,0.01080
,,,-0.03948799893,0.00140,0.01060
,,,-0.03948000073,0.00120,0.01040
,,,-0.03947199881,0.00120,0.01020
,,,-0.03946400061,0.00100,0.01000
,,,-0.03945599869,0.00100,0.00980
,,,-0.03944800049,0.00100,0.00960
,,,-0.03943999857,0.00100,0.00960
,,,-0.03943200037,0.00120,0.00960
,,,-0.03942399845,0.00120,0.00940
,,,-0.03941600025,0.00140,0.00940
,,,-0.03940799832,0.00140,0.00940
,,,-0.03940000013,0.00140,0.00940
,,,-0.03939199820,0.00120,0.00940
,,,-0.03938400000,0.00120,0.00940
,,,-0.03937599808,0.00100,0.00940
,,,-0.03936799988,0.00100,0.00940
,,,-0.03936000168,0.00080,0.00920
,,,-0.03935199976,0.00080,0.00920
,,,-0.03934400156,0.00100,0.00920
,,,-0.03933599964,0.00100,0.00920
,,,-0.03932800144,0.00120,0.00920
,,,-0.03931999952,0.00120,0.00920
,,,-0.03931200132,0.00140,0.00940
,,,-0.03930399939,0.00140,0.00940
,,,-0.03929600120,0.00120,0.00940
,,,-0.03928799927,0.00120,0.00920
,,,-0.03928000107,0.00100,0.00900
,,,-0.03927199915,0.00080,0.00880
,,,-0.03926400095,0.00060,0.00860
,,,-0.03925599903,0.00060,0.00840
,,,-0.03924800083,0.00060,0.00820
,,,-0.03923999891,0.00080,0.00800
,,,-0.03923200071,0.00080,0.00780
,,,-0.03922399879,0.00100,0.00780
,,,-0.03921600059,0.00100,0.00800
,,,-0.03920799866,0.00120,0.00820
,,,-0.03920000046,0.00120,0.00840
,,,-0.03919199854,0.00100,0.00860
,,,-0.03918400034,0.00100,0.00860
,,,-0.03917599842,0.00080,0.00860
,,,-0.03916800022,0.00080,0.00860
,,,-0.03915999830,0.00080,0.00860
,,,-0.03915200010,0.00080,0.00840
,,,-0.03914399818,0.00080,0.00820
,,,-0.03913599998,0.00100,0.00820
,,,-0.03912799805,0.00120,0.00800
,,,-0.03911999986,0.00120,0.00800
,,,-0.03911200166,0.00140,0.00800
,,,-0.03910399973,0.00140,0.00800
,,,-0.03909600154,0.00120,0.00800
,,,-0.03908799961,0.00120,0.00800
,,,-0.03908000141,0.00100,0.00800
,,,-0.03907199949,0.00080,0.00780
,,,-0.03906400129,0.00080,0.00780
,,,-0.03905599937,0.00060,0.00760
,,,-0.03904800117,0.00060,0.00740
,,,-0.03903999925,0.00060,0.00740
,,,-0.03903200105,0.00080,0.00740
,,,-0.03902399912,0.00080,0.00720
,,,-0.03901600093,0.00100,0.00720
,,,-0.03900799900,0.00100,0.00720
,,,-0.03900000080,0.00100,0.00720
,,,-0.03899199888,0.00120,0.00720
,,,-0.03898400068,0.00120,0.00720
,,,-0.03897599876,0.00120,0.00720
,,,-0.03896800056,0.00120,0.00700
,,,-0.03895999864,0.00100,0.00700
,,,-0.03895200044,0.00100,0.00700
,,,-0.03894399852,0.00100,0.00700
,,,-0.03893600032,0.00100,0.00700
,,,-0.03892799839,0.00100,0.00700
,,,-0.03892000020,0.00100,0.00700
,,,-0.03891199827,0.00100,0.00680
,,,-0.03890400007,0.00100,0.00660
,,,-0.03889599815,0.00100,0.00620
,,,-0.03888799995,0.00100,0.00600
,,,-0.03888000175,0.00120,0.00580
,,,-0.03887199983,0.00120,0.00560
,,,-0.03886400163,0.00140,0.00540
,,,-0.03885599971,0.00140,0.00540
,,,-0.03884800151,0.00160,0.00560
,,,-0.03883999959,0.00160,0.00580
,,,-0.03883200139,0.00180,0.00600
,,,-0.03882399946,0.00180,0.00620
,,,-0.03881600127,0.00180,0.00640
,,,-0.03880799934,0.00160,0.00640
,,,-0.03880000114,0.00160,0.00620
,,,-0.03879199922,0.00140,0.00620
,,,-0.03878400102,0.00140,0.00580
,,,-0.03877599910,0.00120,0.00560
,,,-0.03876800090,0.00100,0.00540
,,,-0.03875999898,0.00100,0.00500
,,,-0.03875200078,0.00100,0.00480
,,,-0.03874399886,0.00100,0.00460
,,,-0.03873600066,0.00100,0.00460
,,,-0.03872799873,0.00100,0.00460
,,,-0.03872000054,0.00100,0.00460
,,,-0.03871199861,0.00100,0.00460
,,,-0.03870400041,0.00100,0.00460
,,,-0.03869599849,0.00120,0.00460
,,,-0.03868800029,0.00120,0.00460
,,,-0.03867999837,0.00120,0.00460
,,,-0.03867200017,0.00140,0.00460
,,,-0.03866399825,0.00140,0.00460
,,,-0.03865600005,0.00140,0.00460
,,,-0.03864799812,0.00140,0.00440
,,,-0.03863999993,0.00140,0.00440
,,,-0.03863200173,0.00140,0.00440
,,,-0.03862399980,0.00140,0.00460
,,,-0.03861600161,0.00140,0.00460
,,,-0.03860799968,0.00140,0.00460
,,,-0.03860000148,0.00140,0.00460
,,,-0.03859199956,0.00140,0.00460
,,,-0.03858400136,0.00140,0.00440
,,,-0.03857599944,0.00140,0.00440
,,,-0.03856800124,0.00120,0.00420
,,,-0.03855999932,0.00120,0.00420
,,,-0.03855200112,0.00100,0.00400
,,,-0.03854399920,0.00100,0.00400
,,,-0.03853600100,0.00080,0.00400
,,,-0.03852799907,0.00080,0.00380
,,,-0.03852000087,0.00080,0.00380
,,,-0.03851199895,0.00080,0.00380
,,,-0.03850400075,0.00080,0.00360
,,,-0.03849599883,0.00100,0.00360
,,,-0.03848800063,0.00100,0.00340
,,,-0.03847999871,0.00100,0.00340
,,,-0.03847200051,0.00100,0.00340
,,,-0.03846399859,0.00100,0.00320
,,,-0.03845600039,0.00100,0.00320
,,,-0.03844799846,0.00100,0.00320
,,,-0.03844000027,0.00080,0.00300
,,,-0.03843199834,0.00080,0.00300
,,,-0.03842400014,0.00080,0.00300
,,,-0.03841599822,0.00080,0.00280
,,,-0.03840800002,0.00080,0.00280
,,,-0.03839999810,0.00080,0.00260
,,,-0.03839199990,0.00080,0.00260
,,,-0.03838400170,0.00100,0.00260
,,,-0.03837599978,0.00100,0.00260
,,,-0.03836800158,0.00080,0.00260
,,,-0.03835999966,0.00080,0.00260
,,,-0.03835200146,0.00080,0.00260
,,,-0.03834399953,0.00080,0.00260
,,,-0.03833600134,0.00080,0.00240
,,,-0.03832799941,0.00100,0.00220
,,,-0.03832000121,0.00100,0.00200
,,,-0.03831199929,0.00100,0.00180
,,,-0.03830400109,0.00120,0.00160
,,,-0.03829599917,0.00120,0.00140
,,,-0.03828800097,0.00120,0.00140
,,,-0.03827999905,0.00120,0.00140
,,,-0.03827200085,0.00120,0.00140
,,,-0.03826399893,0.00100,0.00140
,,,-0.03825600073,0.00100,0.00140
,,,-0.03824799880,0.00080,0.00140
,,,-0.03824000061,0.00080,0.00120
,,,-0.03823199868,0.00060,0.00100
,,,-0.03822400048,0.00060,0.00080
,,,-0.03821599856,0.00060,0.00060
,,,-0.03820800036,0.00060,0.00040
,,,-0.03819999844,0.00060,0.00040
,,,-0.03819200024,0.00060,0.00020
,,,-0.03818399832,0.00060,0.00020
,,,-0.03817600012,0.00080,0.00020
,,,-0.03816799819,0.00100,0.00040
,,,-0.03816000000,0.00100,0.00040
,,,-0.03815199807,0.00120,0.00040
,,,-0.03814399987,0.00120,0.00020
,,,-0.03813600168,0.00140,0.00020
,,,-0.03812799975,0.00120,0.00
,,,-0.03812000155,0.00120,-0.00020
,,,-0.03811199963,0.00120,-0.00040
,,,-0.03810400143,0.00100,-0.00060
,,,-0.03809599951,0.00100,-0.00060
,,,-0.03808800131,0.00080,-0.00060
,,,-0.03807999939,0.00100,-0.00060
,,,-0.03807200119,0.00100,-0.00040
,,,-0.03806399927,0.00120,-0.00020
,,,-0.03805600107,0.00120,0.00
,,,-0.03804799914,0.00140,0.00020
,,,-0.03804000095,0.00140,0.00020
,,,-0.03803199902,0.00160,0.00020
,,,-0.03802400082,0.00140,0.00020
,,,-0.03801599890,0.00140,0.00020
,,,-0.03800800070,0.00140,0.00
,,,-0.03799999878,0.00120,0.00
,,,-0.03799200058,0.00120,-0.00020
,,,-0.03798399866,0.00120,-0.00020
,,,-0.03797600046,0.00120,-0.00020
,,,-0.03796799853,0.00120,-0.00040
,,,-0.03796000034,0.00120,-0.00040
,,,-0.03795199841,0.00120,-0.00060
,,,-0.03794400021,0.00120,-0.00080
,,,-0.03793599829,0.00120,-0.00100
,,,-0.03792800009,0.00100,-0.00140
,,,-0.03791999817,0.00100,-0.00160
,,,-0.03791199997,0.00100,-0.00200
,,,-0.03790399805,0.00100,-0.00220
,,,-0.03789599985,0.00100,-0.00240
,,,-0.03788800165,0.00100,-0.00240
,,,-0.03787999973,0.00100,-0.00240
,,,-0.03787200153,0.00120,-0.00240
,,,-0.03786399961,0.00120,-0.00240
,,,-0.03785600141,0.00120,-0.00220
,,,-0.03784799948,0.00120,-0.00200
,,,-0.03784000129,0.00120,-0.00200
,,,-0.03783199936,0.00120,-0.00200
,,,-0.03782400116,0.00120,-0.00200
,,,-0.03781599924,0.00120,-0.00200
,,,-0.03780800104,0.00100,-0.00220
,,,-0.03779999912,0.00100,-0.00240
,,,-0.03779200092,0.00100,-0.00260
,,,-0.03778399900,0.00080,-0.00280
,,,-0.03777600080,0.00080,-0.00300
,,,-0.03776799887,0.00080,-0.00300
,,,-0.03776000068,0.00080,-0.00300
,,,-0.03775199875,0.00080,-0.00300
,,,-0.03774400055,0.00080,-0.00300
,,,-0.03773599863,0.00100,-0.00300
,,,-0.03772800043,0.00100,-0.00300
,,,-0.03771999851,0.00120,-0.00320
,,,-0.03771200031,0.00120,-0.00340
,,,-0.03770399839,0.00140,-0.00360
,,,-0.03769600019,0.00140,-0.00380
,,,-0.03768799827,0.00140,-0.00420
,,,-0.03768000007,0.00140,-0.00460
,,,-0.03767199814,0.00140,-0.00480
,,,-0.03766399994,0.00120,-0.00500
,,,-0.03765600175,0.00120,-0.00500
,,,-0.03764799982,0.00100,-0.00500
,,,-0.03764000162,0.00100,-0.00480
,,,-0.03763199970,0.00100,-0.00460
,,,-0.03762400150,0.00100,-0.00460
,,,-0.03761599958,0.00100,-0.00440
,,,-0.03760800138,0.00100,-0.00440
,,,-0.03759999946,0.00100,-0.00440
,,,-0.03759200126,0.00120,-0.00460
,,,-0.03758399934,0.00120,-0.00480
,,,-0.03757600114,0.00140,-0.00500
,,,-0.03756799921,0.00140,-0.00520
,,,-0.03756000102,0.00140,-0.00540
,,,-0.03755199909,0.00140,-0.00560
,,,-0.03754400089,0.00140,-0.00580
,,,-0.03753599897,0.00140,-0.00580
,,,-0.03752800077,0.00140,-0.00580
,,,-0.03751999885,0.00120,-0.00580
,,,-0.03751200065,0.00120,-0.00580
,,,-0.03750399873,0.00120,-0.00580
,,,-0.03749600053,0.00120,-0.00560
,,,-0.03748799860,0.00120,-0.00560
,,,-0.03748000041,0.00120,-0.00560
,,,-0.03747199848,0.00120,-0.00540
,,,-0.03746400028,0.00120,-0.00540
,,,-0.03745599836,0.00120,-0.00540
,,,-0.03744800016,0.00120,-0.00540
,,,-0.03743999824,0.00120,-0.00560
,,,-0.03743200004,0.00120,-0.00560
,,,-0.03742399812,0.00140,-0.00600
,,,-0.03741599992,0.00140,-0.00620
,,,-0.03740800172,0.00140,-0.00660
,,,-0.03739999980,0.00160,-0.00680
,,,-0.03739200160,0.00160,-0.00700
,,,-0.03738399968,0.00160,-0.00720
,,,-0.03737600148,0.00160,-0.00720
,,,-0.03736799955,0.00140,-0.00720
,,,-0.03736000136,0.00140,-0.00700
,,,-0.03735199943,0.00140,-0.00680
,,,-0.03734400123,0.00120,-0.00660
,,,-0.03733599931,0.00120,-0.00660
,,,-0.03732800111,0.00120,-0.00660
,,,-0.03731999919,0.00120,-0.00660
,,,-0.03731200099,0.00120,-0.00680
,,,-0.03730399907,0.00140,-0.00720
,,,-0.03729600087,0.00140,-0.00740
,,,-0.03728799894,0.00160,-0.00780
,,,-0.03728000075,0.00160,-0.00800
,,,-0.03727199882,0.00160,-0.00820
,,,-0.03726400062,0.00140,-0.00820
,,,-0.03725599870,0.00140,-0.00820
,,,-0.03724800050,0.00120,-0.00820
,,,-0.03723999858,0.00120,-0.00820
,,,-0.03723200038,0.00100,-0.00800
,,,-0.03722399846,0.00100,-0.00800
,,,-0.03721600026,0.00100,-0.00800
,,,-0.03720799834,0.00100,-0.00800
,,,-0.03720000014,0.00100,-0.00820
,,,-0.03719199821,0.00100,-0.00840
,,,-0.03718400002,0.00100,-0.00840
,,,-0.03717599809,0.00100,-0.00840
,,,-0.03716799989,0.00080,-0.00840
,,,-0.03716000170,0.00080,-0.00820
,,,-0.03715199977,0.00080,-0.00820
,,,-0.03714400157,0.00080,-0.00800
,,,-0.03713599965,0.00080,-0.00780
,,,-0.03712800145,0.00080,-0.00780
,,,-0.03711999953,0.00080,-0.00780
,,,-0.03711200133,0.00100,-0.00800
,,,-0.03710399941,0.00080,-0.00820
,,,-0.03709600121,0.00080,-0.00860
,,,-0.03708799928,0.00080,-0.00880
,,,-0.03708000109,0.00080,-0.00920
,,,-0.03707199916,0.00080,-0.00940
,,,-0.03706400096,0.00080,-0.00960
,,,-0.03705599904,0.00080,-0.00980
,,,-0.03704800084,0.00100,-0.00980
,,,-0.03703999892,0.00100,-0.00980
,,,-0.03703200072,0.00080,-0.00960
,,,-0.03702399880,0.00080,-0.00940
,,,-0.03701600060,0.00080,-0.00940
,,,-0.03700799868,0.00060,-0.00940
,,,-0.03700000048,0.00040,-0.00940
,,,-0.03699199855,0.00020,-0.00940
,,,-0.03698400036,0.00,-0.00960
,,,-0.03697599843,0.00,-0.00980
,,,-0.03696800023,0.00,-0.01000
,,,-0.03695999831,0.00,-0.01000
,,,-0.03695200011,0.00,-0.01000
,,,-0.03694399819,0.00020,-0.01000
,,,-0.03693599999,0.00040,-0.01000
,,,-0.03692799807,0.00080,-0.00980
,,,-0.03691999987,0.00100,-0.00960
,,,-0.03691200167,0.00120,-0.00960
,,,-0.03690399975,0.00120,-0.00960
,,,-0.03689600155,0.00140,-0.00960
,,,-0.03688799962,0.00140,-0.00960
,,,-0.03688000143,0.00120,-0.00980
,,,-0.03687199950,0.00120,-0.01000
,,,-0.03686400130,0.00100,-0.01020
,,,-0.03685599938,0.00080,-0.01040
,,,-0.03684800118,0.00060,-0.01040
,,,-0.03683999926,0.00060,-0.01060
,,,-0.03683200106,0.00060,-0.01060
,,,-0.03682399914,0.00060,-0.01060
,,,-0.03681600094,0.00060,-0.01060
,,,-0.03680799901,0.00080,-0.01060
,,,-0.03680000082,0.00080,-0.01060
,,,-0.03679199889,0.00100,-0.01060
,,,-0.03678400069,0.00100,-0.01060
,,,-0.03677599877,0.00100,-0.01080
,,,-0.03676800057,0.00100,-0.01100
,,,-0.03675999865,0.00100,-0.01100
,,,-0.03675200045,0.00080,-0.01120
,,,-0.03674399853,0.00080,-0.01120
,,,-0.03673600033,0.00100,-0.01120
,,,-0.03672799841,0.00100,-0.01120
,,,-0.03672000021,0.00120,-0.01120
,,,-0.03671199828,0.00120,-0.01100
,,,-0.03670400009,0.00140,-0.01100
,,,-0.03669599816,0.00140,-0.01100
,,,-0.03668799996,0.00140,-0.01100
,,,-0.03668000177,0.00120,-0.01100
,,,-0.03667199984,0.00120,-0.01100
,,,-0.03666400164,0.00100,-0.01120
,,,-0.03665599972,0.00100,-0.01120
,,,-0.03664800152,0.00080,-0.01120
,,,-0.03663999960,0.00080,-0.01140
,,,-0.03663200140,0.00100,-0.01140
,,,-0.03662399948,0.00100,-0.01140
,,,-0.03661600128,0.00120,-0.01140
,,,-0.03660799935,0.00120,-0.01140
,,,-0.03660000116,0.00140,-0.01140
,,,-0.03659199923,0.00140,-0.01140
,,,-0.03658400103,0.00120,-0.01140
,,,-0.03657599911,0.00120,-0.01160
,,,-0.03656800091,0.00120,-0.01160
,,,-0.03655999899,0.00100,-0.01160
,,,-0.03655200079,0.00100,-0.01160
,,,-0.03654399887,0.00100,-0.01160
,,,-0.03653600067,0.00100,-0.01160
,,,-0.03652799875,0.00100,-0.01160
,,,-0.03652000055,0.00120,-0.01160
,,,-0.03651199862,0.00120,-0.01160
,,,-0.03650400043,0.00120,-0.01180
,,,-0.03649599850,0.00120,-0.01180
,,,-0.03648800030,0.00120,-0.01180
,,,-0.03647999838,0.00120,-0.01200
,,,-0.03647200018,0.00120,-0.01200
,,,-0.03646399826,0.00100,-0.01200
,,,-0.03645600006,0.00100,-0.01200
,,,-0.03644799814,0.00100,-0.01200
,,,-0.03643999994,0.00100,-0.01200
,,,-0.03643200174,0.00100,-0.01200
,,,-0.03642399982,0.00100,-0.01220
,,,-0.03641600162,0.00100,-0.01220
,,,-0.03640799969,0.00100,-0.01240
,,,-0.03640000150,0.00100,-0.01260
,,,-0.03639199957,0.00100,-0.01280
,,,-0.03638400137,0.00100,-0.01280
,,,-0.03637599945,0.00120,-0.01300
,,,-0.03636800125,0.00120,-0.01300
,,,-0.03635999933,0.00120,-0.01300
,,,-0.03635200113,0.00120,-0.01300
,,,-0.03634399921,0.00100,-0.01280
,,,-0.03633600101,0.00100,-0.01260
,,,-0.03632799909,0.00100,-0.01260
,,,-0.03632000089,0.00100,-0.01240
,,,-0.03631199896,0.00080,-0.01240
,,,-0.03630400077,0.00080,-0.01220
,,,-0.03629599884,0.00080,-0.01220
,,,-0.03628800064,0.00080,-0.01240
,,,-0.03627999872,0.00080,-0.01240
,,,-0.03627200052,0.00080,-0.01240
,,,-0.03626399860,0.00080,-0.01260
,,,-0.03625600040,0.00080,-0.01260
,,,-0.03624799848,0.00100,-0.01280
,,,-0.03624000028,0.00100,-0.01280
,,,-0.03623199835,0.00100,-0.01300
,,,-0.03622400016,0.00100,-0.01300
,,,-0.03621599823,0.00120,-0.01300
,,,-0.03620800003,0.00120,-0.01300
,,,-0.03619999811,0.00120,-0.01300
,,,-0.03619199991,0.00120,-0.01300
,,,-0.03618400171,0.00120,-0.01300
,,,-0.03617599979,0.00120,-0.01300
,,,-0.03616800159,0.00100,-0.01300
,,,-0.03615999967,0.00100,-0.01300
,,,-0.03615200147,0.00100,-0.01300
,,,-0.03614399955,0.00100,-0.01300
,,,-0.03613600135,0.00120,-0.01280
,,,-0.03612799942,0.00120,-0.01280
,,,-0.03612000123,0.00140,-0.01300
,,,-0.03611199930,0.00140,-0.01300
,,,-0.03610400110,0.00160,-0.01300
,,,-0.03609599918,0.00180,-0.01300
,,,-0.03608800098,0.00180,-0.01300
,,,-0.03607999906,0.00180,-0.01300
,,,-0.03607200086,0.00160,-0.01280
,,,-0.03606399894,0.00160,-0.01280
,,,-0.03605600074,0.00140,-0.01280
,,,-0.03604799882,0.00140,-0.01280
,,,-0.03604000062,0.00120,-0.01280
,,,-0.03603199869,0.00120,-0.01280
,,,-0.03602400050,0.00120,-0.01280
,,,-0.03601599857,0.00120,-0.01280
,,,-0.03600800037,0.00120,-0.01280
,,,-0.03599999845,0.00120,-0.01280
,,,-0.03599200025,0.00100,-0.01280
,,,-0.03598399833,0.00100,-0.01280
,,,-0.03597600013,0.00100,-0.01280
,,,-0.03596799821,0.00080,-0.01280
,,,-0.03596000001,0.00060,-0.01260
,,,-0.03595199808,0.00060,-0.01260
,,,-0.03594399989,0.00060,-0.01260
,,,-0.03593600169,0.00060,-0.01260
,,,-0.03592799976,0.00060,-0.01240
,,,-0.03592000157,0.00080,-0.01240
,,,-0.03591199964,0.00080,-0.01240
,,,-0.03590400144,0.00100,-0.01240
,,,-0.03589599952,0.00100,-0.01260
,,,-0.03588800132,0.00120,-0.01260
,,,-0.03587999940,0.00120,-0.01280
,,,-0.03587200120,0.00120,-0.01300
,,,-0.03586399928,0.00100,-0.01300
,,,-0.03585600108,0.00100,-0.01320
,,,-0.03584799916,0.00080,-0.01320
,,,-0.03584000096,0.00080,-0.01320
,,,-0.03583199903,0.00080,-0.01300
,,,-0.03582400084,0.00080,-0.01280
,,,-0.03581599891,0.00060,-0.01260
,,,-0.03580800071,0.00080,-0.01260
,,,-0.03579999879,0.00080,-0.01240
,,,-0.03579200059,0.00080,-0.01240
,,,-0.03578399867,0.00080,-0.01240
,,,-0.03577600047,0.00080,-0.01240
,,,-0.03576799855,0.00080,-0.01240
,,,-0.03576000035,0.00080,-0.01260
,,,-0.03575199842,0.00080,-0.01280
,,,-0.03574400023,0.00080,-0.01280
,,,-0.03573599830,0.00060,-0.01300
,,,-0.03572800010,0.00060,-0.01300
,,,-0.03571999818,0.00060,-0.01300
,,,-0.03571199998,0.00040,-0.01280
,,,-0.03570399806,0.00040,-0.01260
,,,-0.03569599986,0.00060,-0.01240
,,,-0.03568800166,0.00060,-0.01220
,,,-0.03567999974,0.00080,-0.01220
,,,-0.03567200154,0.00080,-0.01200
,,,-0.03566399962,0.00100,-0.01200
,,,-0.03565600142,0.00100,-0.01180
,,,-0.03564799950,0.00100,-0.01180
,,,-0.03564000130,0.00100,-0.01200
,,,-0.03563199937,0.00100,-0.01200
,,,-0.03562400118,0.00080,-0.01200
,,,-0.03561599925,0.00060,-0.01220
,,,-0.03560800105,0.00060,-0.01220
,,,-0.03559999913,0.00040,-0.01240
,,,-0.03559200093,0.00040,-0.01240
,,,-0.03558399901,0.00040,-0.01220
,,,-0.03557600081,0.00040,-0.01220
,,,-0.03556799889,0.00040,-0.01200
,,,-0.03556000069,0.00060,-0.01180
,,,-0.03555199876,0.00080,-0.01180
,,,-0.03554400057,0.00100,-0.01160
,,,-0.03553599864,0.00120,-0.01160
,,,-0.03552800044,0.00140,-0.01160
,,,-0.03551999852,0.00140,-0.01180
,,,-0.03551200032,0.00140,-0.01180
,,,-0.03550399840,0.00140,-0.01200
,,,-0.03549600020,0.00120,-0.01200
,,,-0.03548799828,0.00120,-0.01200
,,,-0.03548000008,0.00080,-0.01200
,,,-0.03547199816,0.00060,-0.01200
,,,-0.03546399996,0.00040,-0.01180
,,,-0.03545600176,0.00020,-0.01160
,,,-0.03544799984,0.00,-0.01160
